L04 Model Workflows & Recipes
…
wkflow_new <- workflow() %>% 
  add_model(lm_spec) %>% 
  add_recipe(recipe_2_kc)

fit_new <- fit(wkflow_new, kc_training)

pred_price <- kc_testing %>%
  bind_cols(predict(fit_new, kc_testing)) %>% 
  bind_cols(10^(predict(fit_new, kc_testing))) %>% 
  select(price, log_price,.pred...23, .pred...24)

pred_price

# A tibble: 5,404 × 4
    price log_price .pred...23 .pred...24
    <dbl>     <dbl>      <dbl>      <dbl>
 1 229500      5.36       5.58    382281.
 2 323000      5.51       5.47    294330.
 3 400000      5.60       5.73    535184.
 4 530000      5.72       5.76    576052.
 5 650000      5.81       5.87    733754.
 6 329000      5.52       5.53    339614.
 7 280000      5.45       5.53    337116.
 8 322500      5.51       5.49    310181.
 9 625000      5.80       5.90    787878.
10 345000      5.54       5.73    536357.
# … with 5,394 more rows
…
